{
  "main": {
    "id": "38eb9c7c6acb95b7",
    "type": "split",
    "children": [
      {
        "id": "a8bc4506e2727967",
        "type": "tabs",
        "children": [
          {
            "id": "991e71da759bb538",
            "type": "leaf",
            "state": {
              "type": "markdown",
              "state": {
                "file": "Notas_hacking_IS/Meta/Etapa Ecuador/11-Drain.md",
                "mode": "source",
                "source": false
              }
            }
          },
          {
            "id": "8586f9d26b2a208d",
            "type": "leaf",
            "state": {
              "type": "markdown",
              "state": {
                "file": "Notas_hacking_IS/Meta/Etapa Ecuador/13-hidden word.md",
                "mode": "source",
                "source": false
              }
            }
          },
          {
            "id": "ab45bd4643a0e0f8",
            "type": "leaf",
            "state": {
              "type": "markdown",
              "state": {
                "file": "Notas_hacking_IS/Meta/Etapa Ecuador/12-load.md",
                "mode": "source",
                "source": false
              }
            }
          }
        ],
        "currentTab": 2
      }
    ],
    "direction": "vertical"
  },
  "left": {
    "id": "bf3a5a238a061336",
    "type": "split",
    "children": [
      {
        "id": "a3d1245c7e68c713",
        "type": "tabs",
        "children": [
          {
            "id": "2a0d012702b4b846",
            "type": "leaf",
            "state": {
              "type": "file-explorer",
              "state": {
                "sortOrder": "alphabetical"
              }
            }
          },
          {
            "id": "8c427631440c6b1d",
            "type": "leaf",
            "state": {
              "type": "search",
              "state": {
                "query": "",
                "matchingCase": false,
                "explainSearch": false,
                "collapseAll": false,
                "extraContext": false,
                "sortOrder": "alphabetical"
              }
            }
          },
          {
            "id": "3a1fa30b6e9c4d01",
            "type": "leaf",
            "state": {
              "type": "starred",
              "state": {}
            }
          }
        ]
      }
    ],
    "direction": "horizontal",
    "width": 300
  },
  "right": {
    "id": "1643cb28cddc20b7",
    "type": "split",
    "children": [
      {
        "id": "6ad812c7a2e6bd4f",
        "type": "tabs",
        "children": [
          {
            "id": "13e2d67c2dbf6d46",
            "type": "leaf",
            "state": {
              "type": "backlink",
              "state": {
                "file": "Notas_hacking_IS/Meta/Etapa Ecuador/12-load.md",
                "collapseAll": false,
                "extraContext": false,
                "sortOrder": "alphabetical",
                "showSearch": false,
                "searchQuery": "",
                "backlinkCollapsed": false,
                "unlinkedCollapsed": true
              }
            }
          },
          {
            "id": "8a12deeb58ed3e32",
            "type": "leaf",
            "state": {
              "type": "outgoing-link",
              "state": {
                "file": "Notas_hacking_IS/Meta/Etapa Ecuador/12-load.md",
                "linksCollapsed": false,
                "unlinkedCollapsed": true
              }
            }
          },
          {
            "id": "1011d0b3b5fbba0e",
            "type": "leaf",
            "state": {
              "type": "tag",
              "state": {
                "sortOrder": "frequency",
                "useHierarchy": true
              }
            }
          },
          {
            "id": "9e73bf23c92c0c59",
            "type": "leaf",
            "state": {
              "type": "outline",
              "state": {
                "file": "Notas_hacking_IS/Meta/Etapa Ecuador/12-load.md"
              }
            }
          }
        ]
      }
    ],
    "direction": "horizontal",
    "width": 300,
    "collapsed": true
  },
  "active": "ab45bd4643a0e0f8",
  "lastOpenFiles": [
    "Notas_hacking_IS/Meta/Etapa Ecuador/11-Drain.md",
    "Notas_hacking_IS/Meta/Etapa Ecuador/14-Capturing information.md",
    "Notas_hacking_IS/Meta/Etapa Ecuador/13-hidden word.md",
    "Notas_hacking_IS/Meta/Etapa Ecuador/12-load.md",
    "Notas_hacking_IS/Meta/Etapa Ecuador/archivos/Drain/ganador.jpg",
    "Untitled.md"
  ]
}