Cuando despiertan mis ojos y veo	      	 	      	       	       
Que sigo viviendo contigo Perú    	  	      	     		   
Emocionado doy gracias al cielo     	 	     	      	 	  
Por darme la vida contigo Perú	     	    	   	  	   	     
Eres muy grande, lo seguirás siendo      	     	      	     	    
Pues todos estamos contigo Perú      		 	      		 
Sobre mi pecho llevo tus colores   	      	       	 	  	     
Y están mis amores contigo Perú     	      	 		       	      
Somos tus hijos y nos uniremos     	    	 	 	   	  
Y asi triunfaremos contigo Perú   	     	  	 	 
Unida la costa (Unida la costa)	      	   	    		  	  
Unida la sierra (Unida la sierra)    	     	     	       	    	     
Unida la selva, contigo Perú   	 		    	 	 
Unido el trabajo (Unido el trabajo)     	   	       	   	       
Unido el deporte (Unido el deporte)	 	   		      	   
Unidos el norte, el centro y el sur  	   		 	 	       
A triunfar peruanos (a triunfar peruanos)       	      
Que somos hermanos (que somos hermanos)
Que se haga victoria nuestra gratitud
Te daré la vida y cuando yo muera
Me uniré en la tierra
Contigo Perú!
Te daré la vida y cuando yo muera
Me uniré en la tierra
Contigo Perú!
Unida la costa (Unida la costa)
Unida la sierra (Unida la sierra)
Unida la selva, contigo Perú
Unido el trabajo (Unido el trabajo)
Unido el deporte (Unido el deporte)
Unidos el norte, el centro y el sur
A triunfar peruanos (a triunfar peruanos)
Que somos hermanos (que somos hermanos)
Que se haga victoria nuestra gratitud
Te daré la vida y cuando yo muera
Me uniré en la tierra
Contigo Perú!
Te daré la vida y cuando yo muera
Me uniré en la tierra
Contigo Perú!
