{
  "main": {
    "id": "d55794437c9ee345",
    "type": "split",
    "children": [
      {
        "id": "20b58343adce5c0b",
        "type": "tabs",
        "children": [
          {
            "id": "b9e8b8b5e7162ce7",
            "type": "leaf",
            "state": {
              "type": "markdown",
              "state": {
                "file": "01-Hackme.md",
                "mode": "source",
                "source": false
              }
            }
          },
          {
            "id": "d04bf1c1b878676a",
            "type": "leaf",
            "state": {
              "type": "markdown",
              "state": {
                "file": "02-FakePGPX10.md",
                "mode": "source",
                "source": false
              }
            }
          },
          {
            "id": "566ae5944f92d20e",
            "type": "leaf",
            "state": {
              "type": "markdown",
              "state": {
                "file": "04- E-mail.md",
                "mode": "source",
                "source": false
              }
            }
          },
          {
            "id": "3ec6c7659b79db2c",
            "type": "leaf",
            "state": {
              "type": "markdown",
              "state": {
                "file": "05-Where am I.md",
                "mode": "source",
                "source": false
              }
            }
          },
          {
            "id": "9ad9d5b42977d38c",
            "type": "leaf",
            "state": {
              "type": "markdown",
              "state": {
                "file": "06-Guess Guesser.md",
                "mode": "source",
                "source": false
              }
            }
          },
          {
            "id": "4b318ef7b95e7af6",
            "type": "leaf",
            "state": {
              "type": "markdown",
              "state": {
                "file": "07-Mirror.md",
                "mode": "source",
                "source": false
              }
            }
          },
          {
            "id": "6174ca9ba39e4053",
            "type": "leaf",
            "state": {
              "type": "markdown",
              "state": {
                "file": "08-Guess who I am.md",
                "mode": "source",
                "source": false
              }
            }
          },
          {
            "id": "82b4a66b41887bbd",
            "type": "leaf",
            "state": {
              "type": "markdown",
              "state": {
                "file": "09-Letter.md",
                "mode": "source",
                "source": false
              }
            }
          },
          {
            "id": "5b694a1710bcccb9",
            "type": "leaf",
            "state": {
              "type": "markdown",
              "state": {
                "file": "10-Your profile says it all.md",
                "mode": "source",
                "source": false
              }
            }
          },
          {
            "id": "1b127a8cb7157e36",
            "type": "leaf",
            "state": {
              "type": "markdown",
              "state": {
                "file": "11-.md",
                "mode": "source",
                "source": false
              }
            }
          }
        ],
        "currentTab": 9
      }
    ],
    "direction": "vertical"
  },
  "left": {
    "id": "5fa21f7f783260da",
    "type": "split",
    "children": [
      {
        "id": "d4d2f4e29157463c",
        "type": "tabs",
        "children": [
          {
            "id": "a25109e281bc53ff",
            "type": "leaf",
            "state": {
              "type": "file-explorer",
              "state": {
                "sortOrder": "alphabetical"
              }
            }
          },
          {
            "id": "a1973dca63f0652d",
            "type": "leaf",
            "state": {
              "type": "search",
              "state": {
                "query": "",
                "matchingCase": false,
                "explainSearch": false,
                "collapseAll": false,
                "extraContext": false,
                "sortOrder": "alphabetical"
              }
            }
          },
          {
            "id": "8ca23df77bbd00e7",
            "type": "leaf",
            "state": {
              "type": "starred",
              "state": {}
            }
          }
        ]
      }
    ],
    "direction": "horizontal",
    "width": 300
  },
  "right": {
    "id": "510acaf7746fc3aa",
    "type": "split",
    "children": [
      {
        "id": "2bf5dffd73cc27e3",
        "type": "tabs",
        "children": [
          {
            "id": "2d8f1e7d5700b13a",
            "type": "leaf",
            "state": {
              "type": "backlink",
              "state": {
                "file": "11-.md",
                "collapseAll": false,
                "extraContext": false,
                "sortOrder": "alphabetical",
                "showSearch": false,
                "searchQuery": "",
                "backlinkCollapsed": false,
                "unlinkedCollapsed": true
              }
            }
          },
          {
            "id": "ec63d7b02420d162",
            "type": "leaf",
            "state": {
              "type": "outgoing-link",
              "state": {
                "file": "11-.md",
                "linksCollapsed": false,
                "unlinkedCollapsed": true
              }
            }
          },
          {
            "id": "44a89b90c736f187",
            "type": "leaf",
            "state": {
              "type": "tag",
              "state": {
                "sortOrder": "frequency",
                "useHierarchy": true
              }
            }
          },
          {
            "id": "a6ab2c9aa927e3d0",
            "type": "leaf",
            "state": {
              "type": "outline",
              "state": {
                "file": "11-.md"
              }
            }
          }
        ]
      }
    ],
    "direction": "horizontal",
    "width": 300,
    "collapsed": true
  },
  "active": "1b127a8cb7157e36",
  "lastOpenFiles": [
    "10-Your profile says it all.md",
    "09-Letter.md",
    "08-Guess who I am.md",
    "07-Mirror.md",
    "06-Guess Guesser.md",
    "05-Where am I.md",
    "archivos/EMail/image2.png",
    "04- E-mail.md",
    "archivos/Mirror/image2.png",
    "archivos/Unhide the hide/perro.jpg"
  ]
}